Prject1
…
library(dplyr)
library(fivethirtyeight)

## Some larger datasets need to be installed separately, like senators and
## house_district_forecast. To install these, we recommend you install the
## fivethirtyeightdata package by running:
## install.packages('fivethirtyeightdata', repos =
## 'https://fivethirtyeightdata.github.io/drat/', type = 'source')

data(drinks)
data(cousin_marriage)
cousin_marriage

## # A tibble: 70 x 2
##    country      percent
##    <chr>          <dbl>
##  1 Burkina Faso    65.8
##  2 Kuwait          51.7
##  3 Nigeria         51.2
##  4 Pakistan        51  
##  5 Sudan           50.4
##  6 Kyrgyzstan      45.2
##  7 Qatar           44.5
##  8 Bahrain         44.4
##  9 Saudi Arabia    38.4
## 10 Tanzania        37.8
## # … with 60 more rows

father <- full_join(cousin_marriage, drinks, by="country")
father2 <- father %>% na.omit 

#Here I am combining the three servings (beer, wine, spirit) to create a new variable called "total_serving_of_alcohol" using mutate. I found the median of the new variable and used that with 'case_when' to make it into a categorical variable. There are three specific categories of "high", "med", "low", based on the median calculated.

The join that I used to merge the ‘drinks’ and ‘cousin_marriage’ data sets was a full join. I made the merge occur by joining them with their “country” ID/column, since it is shared by both data sets. The reason I decided to do a full join is because I wanted to simply combine both data sets and keeps all of the rows from both. With the full join, 126 rows from the ‘drinks’ data set were lost and 3 rows from the ‘cousin_marriage’ data set were lost, since these were the rows that didn’t have a “country” ID match together. This didn’t create any problems since their were still over 50 observations, and most of the information from the ‘cousin_marriage’ was maintained.

Wrangling (40 pts)

#A. creating a categorical variable with mutate
father2 %>% mutate(total_serving_of_alcohol = beer_servings+wine_servings+spirit_servings)

## # A tibble: 67 x 7
##    country percent beer_servings spirit_servings wine_servings total_litres_of…
##    <chr>     <dbl>         <int>           <int>         <int>            <dbl>
##  1 Burkin…    65.8            25               7             7              4.3
##  2 Kuwait     51.7             0               0             0              0  
##  3 Nigeria    51.2            42               5             2              9.1
##  4 Pakist…    51               0               0             0              0  
##  5 Sudan      50.4             8              13             0              1.7
##  6 Kyrgyz…    45.2            31              97             6              2.4
##  7 Qatar      44.5             1              42             7              0.9
##  8 Bahrain    44.4            42              63             7              2  
##  9 Saudi …    38.4             0               5             0              0.1
## 10 Tanzan…    37.8            36               6             1              5.7
## # … with 57 more rows, and 1 more variable: total_serving_of_alcohol <int>
…
