project2
…
library(dplyr)
library(fivethirtyeight)

## Some larger datasets need to be installed separately, like senators and
## house_district_forecast. To install these, we recommend you install the
## fivethirtyeightdata package by running:
## install.packages('fivethirtyeightdata', repos =
## 'https://fivethirtyeightdata.github.io/drat/', type = 'source')

data(drinks)
data(cousin_marriage)
cousin_marriage

## # A tibble: 70 x 2
##    country      percent
##    <chr>          <dbl>
##  1 Burkina Faso    65.8
##  2 Kuwait          51.7
##  3 Nigeria         51.2
##  4 Pakistan        51  
##  5 Sudan           50.4
##  6 Kyrgyzstan      45.2
##  7 Qatar           44.5
##  8 Bahrain         44.4
##  9 Saudi Arabia    38.4
## 10 Tanzania        37.8
## # … with 60 more rows

dranks <- full_join(cousin_marriage, drinks, by="country")
dranks2 <- dranks %>% na.omit 
dranks2 %>% mutate(total_serving_of_alcohol = beer_servings+wine_servings+spirit_servings)

## # A tibble: 67 x 7
##    country percent beer_servings spirit_servings wine_servings total_litres_of…
##    <chr>     <dbl>         <int>           <int>         <int>            <dbl>
##  1 Burkin…    65.8            25               7             7              4.3
##  2 Kuwait     51.7             0               0             0              0  
##  3 Nigeria    51.2            42               5             2              9.1
##  4 Pakist…    51               0               0             0              0  
##  5 Sudan      50.4             8              13             0              1.7
##  6 Kyrgyz…    45.2            31              97             6              2.4
##  7 Qatar      44.5             1              42             7              0.9
##  8 Bahrain    44.4            42              63             7              2  
##  9 Saudi …    38.4             0               5             0              0.1
## 10 Tanzan…    37.8            36               6             1              5.7
## # … with 57 more rows, and 1 more variable: total_serving_of_alcohol <int>

dranks3 <- dranks2 %>% mutate(total_serving_of_alcohol = beer_servings+wine_servings+spirit_servings)
dranks3 %>% summarize(median(total_serving_of_alcohol))

## # A tibble: 1 x 1
##   `median(total_serving_of_alcohol)`
##                                <int>
## 1                                141

dranks4<-dranks3 %>%mutate(total_serving_of_alcohol = ntile(total_serving_of_alcohol,n = 2), total_serving_of_alcohol=recode(total_serving_of_alcohol, "low", "high"))
dranks4

## # A tibble: 67 x 7
##    country percent beer_servings spirit_servings wine_servings total_litres_of…
##    <chr>     <dbl>         <int>           <int>         <int>            <dbl>
##  1 Burkin…    65.8            25               7             7              4.3
##  2 Kuwait     51.7             0               0             0              0  
##  3 Nigeria    51.2            42               5             2              9.1
##  4 Pakist…    51               0               0             0              0  
##  5 Sudan      50.4             8              13             0              1.7
##  6 Kyrgyz…    45.2            31              97             6              2.4
##  7 Qatar      44.5             1              42             7              0.9
##  8 Bahrain    44.4            42              63             7              2  
##  9 Saudi …    38.4             0               5             0              0.1
## 10 Tanzan…    37.8            36               6             1              5.7
## # … with 57 more rows, and 1 more variable: total_serving_of_alcohol <chr>

dranks5<-dranks4 %>%mutate(percent = ntile(percent,n = 2), percent=recode(percent, "low", "high"))
dranks5

## # A tibble: 67 x 7
##    country percent beer_servings spirit_servings wine_servings total_litres_of…
##    <chr>   <chr>           <int>           <int>         <int>            <dbl>
##  1 Burkin… high               25               7             7              4.3
##  2 Kuwait  high                0               0             0              0  
##  3 Nigeria high               42               5             2              9.1
##  4 Pakist… high                0               0             0              0  
##  5 Sudan   high                8              13             0              1.7
##  6 Kyrgyz… high               31              97             6              2.4
##  7 Qatar   high                1              42             7              0.9
##  8 Bahrain high               42              63             7              2  
##  9 Saudi … high                0               5             0              0.1
## 10 Tanzan… high               36               6             1              5.7
## # … with 57 more rows, and 1 more variable: total_serving_of_alcohol <chr>
…
## [1] 0.3016627

bonferroni <- 0.05/7
bonferroni 

## [1] 0.007142857

A total of 7 tests were carried out. Specifically, one MANOVA, three ANOVAs, and 3 post-hoc T-tests. The probability of at least one type error (if unadjusted) is 0.3016627. The bonferroni correction adjusted the significance level to 0.007142857. Despite this change all seven tests had p-values below this significance level still and therefore it can still be concluded that significant difference does exist. One of the many MANOVA assumptions is having random samples and independent observations, which is likely to have been met here. Additionally, another of the many MANOVA assumptions is to have Multivariate normality of DVs, and is likely to not have been met here.

#2-RANDOMIZATION TEST: MEAN DIFFERENCE

#2-RANDOMIZATION TEST: MEAN DIFFERENCE
dranks5 %>% na.omit

## # A tibble: 67 x 7
##    country percent beer_servings spirit_servings wine_servings total_litres_of…
##    <chr>   <chr>           <int>           <int>         <int>            <dbl>
##  1 Burkin… high               25               7             7              4.3
##  2 Kuwait  high                0               0             0              0  
##  3 Nigeria high               42               5             2              9.1
##  4 Pakist… high                0               0             0              0  
##  5 Sudan   high                8              13             0              1.7
##  6 Kyrgyz… high               31              97             6              2.4
##  7 Qatar   high                1              42             7              0.9
##  8 Bahrain high               42              63             7              2  
##  9 Saudi … high                0               5             0              0.1
## 10 Tanzan… high               36               6             1              5.7
## # … with 57 more rows, and 1 more variable: total_serving_of_alcohol <chr>
…
## Loading required package: zoo

## 
## Attaching package: 'zoo'

## The following objects are masked from 'package:base':
## 
##     as.Date, as.Date.numeric

library(sandwich)
dranks4

## # A tibble: 67 x 7
##    country percent beer_servings spirit_servings wine_servings total_litres_of…
##    <chr>     <dbl>         <int>           <int>         <int>            <dbl>
##  1 Burkin…    65.8            25               7             7              4.3
##  2 Kuwait     51.7             0               0             0              0  
##  3 Nigeria    51.2            42               5             2              9.1
##  4 Pakist…    51               0               0             0              0  
##  5 Sudan      50.4             8              13             0              1.7
##  6 Kyrgyz…    45.2            31              97             6              2.4
##  7 Qatar      44.5             1              42             7              0.9
##  8 Bahrain    44.4            42              63             7              2  
##  9 Saudi …    38.4             0               5             0              0.1
## 10 Tanzan…    37.8            36               6             1              5.7
## # … with 57 more rows, and 1 more variable: total_serving_of_alcohol <chr>
…
#5-LOGISTIC REGRESSION FROM TWO EXPLANATORY VARIABLES

#5
library(ggplot2)
library(plotROC)
dranks6<-dranks5%>%mutate(y=ifelse(percent=="high",1,0))
dranks6

## # A tibble: 67 x 8
##    country percent beer_servings spirit_servings wine_servings total_litres_of…
##    <chr>   <chr>           <int>           <int>         <int>            <dbl>
##  1 Burkin… high               25               7             7              4.3
##  2 Kuwait  high                0               0             0              0  
##  3 Nigeria high               42               5             2              9.1
##  4 Pakist… high                0               0             0              0  
##  5 Sudan   high                8              13             0              1.7
##  6 Kyrgyz… high               31              97             6              2.4
##  7 Qatar   high                1              42             7              0.9
##  8 Bahrain high               42              63             7              2  
##  9 Saudi … high                0               5             0              0.1
## 10 Tanzan… high               36               6             1              5.7
## # … with 57 more rows, and 2 more variables: total_serving_of_alcohol <chr>,
## #   y <dbl>
…
